[
  {
    "dialogue_id": "005_00000",
    "services": [
      "Drone_1"
    ],
    "turns": [
      {
        "frames": [
          {
            "actions": [
              {
                "act": "INFORM",
                "canonical_values": [
                  "warning"
                ],
                "slot": "risk_of_physical_damage",
                "values": [
                  "warning"
                ]
              },
              {
                "act": "INFORM",
                "canonical_values": [
                  "0.0"
                ],
                "slot": "normal_frame",
                "values": [
                  "0.0"
                ]
              },
              {
                "act": "INFORM",
                "canonical_values": [
                  "true"
                ],
                "slot": "object_inpath",
                "values": [
                  "true"
                ]
              },
              {
                "act": "INFORM",
                "canonical_values": [
                  "5"
                ],
                "slot": "object_distance",
                "values": [
                  "5"
                ]
              }
            ],
            "service": "Drone_1",
            "slots": []
          }
        ],
        "speaker": "SYSTEM",
        "utterance": "(0:00) Risk of physical damage! There's a tree in the drone's flight path at a distance of 5m. "
      }
    ]
  },
  {
    "dialogue_id": "005_00001",
    "services": [
      "Drone_1"
    ],
    "turns": [
      {
        "frames": [
          {
            "actions": [
              {
                "act": "INFORM",
                "canonical_values": [
                  "warning"
                ],
                "slot": "risk_of_physical_damage",
                "values": [
                  "warning"
                ]
              },
              {
                "act": "INFORM",
                "canonical_values": [
                  "2"
                ],
                "slot": "object_distance",
                "values": [
                  "2"
                ]
              },
              {
                "act": "INFORM",
                "canonical_values": [
                  "0.0"
                ],
                "slot": "pilot_experienced",
                "values": [
                  "0.0"
                ]
              },
              {
                "act": "INFORM",
                "canonical_values": [
                  "2"
                ],
                "slot": "object_distance",
                "values": [
                  "2"
                ]
              },
              {
                "act": "INFORM",
                "canonical_values": [
                  "tree 1"
                ],
                "slot": "object_name",
                "values": [
                  "tree 1"
                ]
              }
            ],
            "service": "Drone_1",
            "slots": []
          }
        ],
        "speaker": "SYSTEM",
        "utterance": "(0:00) Risk of physical damage! There's a tree only 2m away. "
      }
    ]
  },
  {
    "dialogue_id": "005_00002",
    "services": [
      "Drone_1"
    ],
    "turns": [
      {
        "frames": [
          {
            "actions": [
              {
                "act": "INFORM",
                "canonical_values": [
                  "warning"
                ],
                "slot": "risk_of_physical_damage",
                "values": [
                  "warning"
                ]
              },
              {
                "act": "INFORM",
                "canonical_values": [
                  "0.0"
                ],
                "slot": "normal_frame",
                "values": [
                  "0.0"
                ]
              }
            ],
            "service": "Drone_1",
            "slots": []
          }
        ],
        "speaker": "SYSTEM",
        "utterance": "Risk of physical damage! The drone has a damaged frame. [SEP]"
      }
    ]
  },
  {
    "dialogue_id": "005_00003",
    "services": [
      "Drone_1"
    ],
    "turns": [
      {
        "frames": [
          {
            "actions": [
              {
                "act": "INFORM",
                "canonical_values": [
                  "warning"
                ],
                "slot": "risk_of_physical_damage",
                "values": [
                  "warning"
                ]
              },
              {
                "act": "INFORM",
                "canonical_values": [
                  "12.0"
                ],
                "slot": "altitude",
                "values": [
                  "12.0"
                ]
              },
              {
                "act": "INFORM",
                "canonical_values": [
                  "40.0"
                ],
                "slot": "battery_level",
                "values": [
                  "40.0"
                ]
              },
              {
                "act": "INFORM",
                "canonical_values": [
                  "true"
                ],
                "slot": "object_inpath",
                "values": [
                  "true"
                ]
              },
              {
                "act": "INFORM",
                "canonical_values": [
                  "3"
                ],
                "slot": "object_distance",
                "values": [
                  "3"
                ]
              },
              {
                "act": "INFORM",
                "canonical_values": [
                  "tree 1"
                ],
                "slot": "object_name",
                "values": [
                  "tree 1"
                ]
              }
            ],
            "service": "Drone_1",
            "slots": []
          }
        ],
        "speaker": "SYSTEM",
        "utterance": "Risk of physical damage and lost connection! The drone has low battery. It\u9225\u6a9a flying at an altitude of 12m. The drone is 4836m away from the remote control.    (0:04) Risk of physical damage! There's a tree in the drone's flight path at a distance of 3m. "
      }
    ]
  },
  {
    "dialogue_id": "005_00004",
    "services": [
      "Drone_1"
    ],
    "turns": [
      {
        "frames": [
          {
            "actions": [
              {
                "act": "INFORM",
                "canonical_values": [
                  "warning"
                ],
                "slot": "risk_of_physical_damage",
                "values": [
                  "warning"
                ]
              },
              {
                "act": "INFORM",
                "canonical_values": [
                  "1"
                ],
                "slot": "object_distance",
                "values": [
                  "1"
                ]
              },
              {
                "act": "INFORM",
                "canonical_values": [
                  "0.0"
                ],
                "slot": "pilot_experienced",
                "values": [
                  "0.0"
                ]
              },
              {
                "act": "INFORM",
                "canonical_values": [
                  "1"
                ],
                "slot": "object_distance",
                "values": [
                  "1"
                ]
              },
              {
                "act": "INFORM",
                "canonical_values": [
                  "0.0"
                ],
                "slot": "normal_frame",
                "values": [
                  "0.0"
                ]
              }
            ],
            "service": "Drone_1",
            "slots": []
          }
        ],
        "speaker": "SYSTEM",
        "utterance": "Risk of physical damage! The drone has a damaged frame.    (0:00) Risk of physical damage! There's water only 1m away. [SEP]"
      }
    ]
  },
  {
    "dialogue_id": "005_00005",
    "services": [
      "Drone_1"
    ],
    "turns": [
      {
        "frames": [
          {
            "actions": [
              {
                "act": "INFORM",
                "canonical_values": [
                  "warning"
                ],
                "slot": "risk_of_physical_damage",
                "values": [
                  "warning"
                ]
              },
              {
                "act": "INFORM",
                "canonical_values": [
                  "0.0"
                ],
                "slot": "normal_frame",
                "values": [
                  "0.0"
                ]
              },
              {
                "act": "INFORM",
                "canonical_values": [
                  "1"
                ],
                "slot": "object_distance",
                "values": [
                  "1"
                ]
              },
              {
                "act": "INFORM",
                "canonical_values": [
                  "0.0"
                ],
                "slot": "pilot_experienced",
                "values": [
                  "0.0"
                ]
              },
              {
                "act": "INFORM",
                "canonical_values": [
                  "1"
                ],
                "slot": "object_distance",
                "values": [
                  "1"
                ]
              }
            ],
            "service": "Drone_1",
            "slots": []
          }
        ],
        "speaker": "SYSTEM",
        "utterance": "Risk of physical damage! The drone has a damaged frame.    (0:02) Risk of physical damage! There's water only 1m away. [SEP]"
      }
    ]
  },
  {
    "dialogue_id": "005_00006",
    "services": [
      "Drone_1"
    ],
    "turns": [
      {
        "frames": [
          {
            "actions": [
              {
                "act": "INFORM",
                "canonical_values": [
                  "1.0"
                ],
                "slot": "lost_connection",
                "values": [
                  "1.0"
                ]
              },
              {
                "act": "INFORM",
                "canonical_values": [
                  "4050.0"
                ],
                "slot": "distance_from_remote_control",
                "values": [
                  "4050.0"
                ]
              },
              {
                "act": "INFORM",
                "canonical_values": [
                  "20.0"
                ],
                "slot": "battery_level",
                "values": [
                  "20.0"
                ]
              },
              {
                "act": "INFORM",
                "canonical_values": [
                  "advisory"
                ],
                "slot": "risk_of_physical_damage",
                "values": [
                  "advisory"
                ]
              },
              {
                "act": "INFORM",
                "canonical_values": [
                  "true"
                ],
                "slot": "object_inpath",
                "values": [
                  "true"
                ]
              },
              {
                "act": "INFORM",
                "canonical_values": [
                  "6"
                ],
                "slot": "object_distance",
                "values": [
                  "6"
                ]
              },
              {
                "act": "INFORM",
                "canonical_values": [
                  "tree 1"
                ],
                "slot": "object_name",
                "values": [
                  "tree 1"
                ]
              }
            ],
            "service": "Drone_1",
            "slots": []
          }
        ],
        "speaker": "SYSTEM",
        "utterance": "(0:00) Risk of physical damage! There's a tree in the drone's flight path at a distance of 6m. "
      }
    ]
  },
  {
    "dialogue_id": "005_00007",
    "services": [
      "Drone_1"
    ],
    "turns": [
      {
        "frames": [
          {
            "actions": [
              {
                "act": "INFORM",
                "canonical_values": [
                  "advisory"
                ],
                "slot": "risk_of_physical_damage",
                "values": [
                  "advisory"
                ]
              },
              {
                "act": "INFORM",
                "canonical_values": [
                  "true"
                ],
                "slot": "object_inpath",
                "values": [
                  "true"
                ]
              },
              {
                "act": "INFORM",
                "canonical_values": [
                  "3"
                ],
                "slot": "object_distance",
                "values": [
                  "3"
                ]
              },
              {
                "act": "INFORM",
                "canonical_values": [
                  "8.0"
                ],
                "slot": "altitude",
                "values": [
                  "8.0"
                ]
              },
              {
                "act": "INFORM",
                "canonical_values": [
                  "20.0"
                ],
                "slot": "battery_level",
                "values": [
                  "20.0"
                ]
              },
              {
                "act": "INFORM",
                "canonical_values": [
                  "tree 1"
                ],
                "slot": "object_name",
                "values": [
                  "tree 1"
                ]
              }
            ],
            "service": "Drone_1",
            "slots": []
          }
        ],
        "speaker": "SYSTEM",
        "utterance": "Risk of physical damage and lost connection! The drone has low battery. It\u9225\u6a9a flying at an altitude of 8m. The drone is 4637m away from the remote control.    (0:00) Risk of physical damage! There's a tree in the drone's flight path at a distance of 3m. "
      }
    ]
  },
  {
    "dialogue_id": "005_00008",
    "services": [
      "Drone_1"
    ],
    "turns": [
      {
        "frames": [
          {
            "actions": [
              {
                "act": "INFORM",
                "canonical_values": [
                  "warning"
                ],
                "slot": "risk_of_physical_damage",
                "values": [
                  "warning"
                ]
              },
              {
                "act": "INFORM",
                "canonical_values": [
                  "1"
                ],
                "slot": "object_distance",
                "values": [
                  "1"
                ]
              },
              {
                "act": "INFORM",
                "canonical_values": [
                  "0.0"
                ],
                "slot": "pilot_experienced",
                "values": [
                  "0.0"
                ]
              },
              {
                "act": "INFORM",
                "canonical_values": [
                  "1"
                ],
                "slot": "object_distance",
                "values": [
                  "1"
                ]
              },
              {
                "act": "INFORM",
                "canonical_values": [
                  "0.0"
                ],
                "slot": "normal_frame",
                "values": [
                  "0.0"
                ]
              },
              {
                "act": "INFORM",
                "canonical_values": [
                  "sandy beach"
                ],
                "slot": "object_name",
                "values": [
                  "sandy beach"
                ]
              }
            ],
            "service": "Drone_1",
            "slots": []
          }
        ],
        "speaker": "SYSTEM",
        "utterance": "Risk of physical damage! The drone has a damaged frame.    (0:00) Risk of physical damage! There's a sandy beach only 1m away. "
      }
    ]
  },
  {
    "dialogue_id": "005_00009",
    "services": [
      "Drone_1"
    ],
    "turns": [
      {
        "frames": [
          {
            "actions": [
              {
                "act": "INFORM",
                "canonical_values": [
                  "warning"
                ],
                "slot": "risk_of_physical_damage",
                "values": [
                  "warning"
                ]
              },
              {
                "act": "INFORM",
                "canonical_values": [
                  "0.2"
                ],
                "slot": "object_distance",
                "values": [
                  "0.2"
                ]
              },
              {
                "act": "INFORM",
                "canonical_values": [
                  "0.0"
                ],
                "slot": "pilot_experienced",
                "values": [
                  "0.0"
                ]
              },
              {
                "act": "INFORM",
                "canonical_values": [
                  "0.2"
                ],
                "slot": "object_distance",
                "values": [
                  "0.2"
                ]
              },
              {
                "act": "INFORM",
                "canonical_values": [
                  "true"
                ],
                "slot": "object_inpath",
                "values": [
                  "true"
                ]
              },
              {
                "act": "INFORM",
                "canonical_values": [
                  "0.2"
                ],
                "slot": "object_distance",
                "values": [
                  "0.2"
                ]
              },
              {
                "act": "INFORM",
                "canonical_values": [
                  "0.0"
                ],
                "slot": "normal_frame",
                "values": [
                  "0.0"
                ]
              },
              {
                "act": "INFORM",
                "canonical_values": [
                  "sandy beach"
                ],
                "slot": "object_name",
                "values": [
                  "sandy beach"
                ]
              }
            ],
            "service": "Drone_1",
            "slots": []
          }
        ],
        "speaker": "SYSTEM",
        "utterance": "Risk of physical damage! The drone has a damaged frame.    (0:00) Risk of physical damage! There's a sandy beach in the drone's flight path at a distance of .2m. "
      }
    ]
  },
  {
    "dialogue_id": "005_00010",
    "services": [
      "Drone_1"
    ],
    "turns": [
      {
        "frames": [
          {
            "actions": [
              {
                "act": "INFORM",
                "canonical_values": [
                  "advisory"
                ],
                "slot": "risk_of_physical_damage",
                "values": [
                  "advisory"
                ]
              },
              {
                "act": "INFORM",
                "canonical_values": [
                  "2"
                ],
                "slot": "object_distance",
                "values": [
                  "2"
                ]
              },
              {
                "act": "INFORM",
                "canonical_values": [
                  "0.0"
                ],
                "slot": "pilot_experienced",
                "values": [
                  "0.0"
                ]
              },
              {
                "act": "INFORM",
                "canonical_values": [
                  "2"
                ],
                "slot": "object_distance",
                "values": [
                  "2"
                ]
              },
              {
                "act": "INFORM",
                "canonical_values": [
                  "water"
                ],
                "slot": "object_name",
                "values": [
                  "water"
                ]
              }
            ],
            "service": "Drone_1",
            "slots": []
          }
        ],
        "speaker": "SYSTEM",
        "utterance": "(0:02) Risk of physical damage! There's water only 2m away. "
      }
    ]
  },
  {
    "dialogue_id": "005_00011",
    "services": [
      "Drone_1"
    ],
    "turns": [
      {
        "frames": [
          {
            "actions": [
              {
                "act": "INFORM",
                "canonical_values": [
                  "warning"
                ],
                "slot": "risk_of_physical_damage",
                "values": [
                  "warning"
                ]
              },
              {
                "act": "INFORM",
                "canonical_values": [
                  "true"
                ],
                "slot": "object_inpath",
                "values": [
                  "true"
                ]
              },
              {
                "act": "INFORM",
                "canonical_values": [
                  "3"
                ],
                "slot": "object_distance",
                "values": [
                  "3"
                ]
              },
              {
                "act": "INFORM",
                "canonical_values": [
                  "1.0"
                ],
                "slot": "altitude",
                "values": [
                  "1.0"
                ]
              },
              {
                "act": "INFORM",
                "canonical_values": [
                  "10.0"
                ],
                "slot": "battery_level",
                "values": [
                  "10.0"
                ]
              },
              {
                "act": "INFORM",
                "canonical_values": [
                  "tree 1"
                ],
                "slot": "object_name",
                "values": [
                  "tree 1"
                ]
              }
            ],
            "service": "Drone_1",
            "slots": []
          }
        ],
        "speaker": "SYSTEM",
        "utterance": "Risk of physical damage! The drone has low battery. It\u9225\u6a9a flying at an altitude of 1m.    (0:01) Risk of physical damage! There's a tree in the drone's flight path at a distance of 3m. "
      }
    ]
  },
  {
    "dialogue_id": "005_00012",
    "services": [
      "Drone_1"
    ],
    "turns": [
      {
        "frames": [
          {
            "actions": [
              {
                "act": "INFORM",
                "canonical_values": [
                  "informative"
                ],
                "slot": "risk_of_physical_damage",
                "values": [
                  "informative"
                ]
              },
              {
                "act": "INFORM",
                "canonical_values": [
                  "true"
                ],
                "slot": "object_inpath",
                "values": [
                  "true"
                ]
              },
              {
                "act": "INFORM",
                "canonical_values": [
                  "5"
                ],
                "slot": "object_distance",
                "values": [
                  "5"
                ]
              }
            ],
            "service": "Drone_1",
            "slots": []
          }
        ],
        "speaker": "SYSTEM",
        "utterance": "(0:00) Risk of physical damage! There's a tree in the drone's flight path at a distance of 5m. [SEP]"
      }
    ]
  },
  {
    "dialogue_id": "005_00013",
    "services": [
      "Drone_1"
    ],
    "turns": [
      {
        "frames": [
          {
            "actions": [
              {
                "act": "INFORM",
                "canonical_values": [
                  "warning"
                ],
                "slot": "risk_of_physical_damage",
                "values": [
                  "warning"
                ]
              },
              {
                "act": "INFORM",
                "canonical_values": [
                  "true"
                ],
                "slot": "object_inpath",
                "values": [
                  "true"
                ]
              },
              {
                "act": "INFORM",
                "canonical_values": [
                  "5"
                ],
                "slot": "object_distance",
                "values": [
                  "5"
                ]
              },
              {
                "act": "INFORM",
                "canonical_values": [
                  "1.0"
                ],
                "slot": "altitude",
                "values": [
                  "1.0"
                ]
              },
              {
                "act": "INFORM",
                "canonical_values": [
                  "40.0"
                ],
                "slot": "battery_level",
                "values": [
                  "40.0"
                ]
              },
              {
                "act": "INFORM",
                "canonical_values": [
                  "0.0"
                ],
                "slot": "normal_frame",
                "values": [
                  "0.0"
                ]
              },
              {
                "act": "INFORM",
                "canonical_values": [
                  "tree 1"
                ],
                "slot": "object_name",
                "values": [
                  "tree 1"
                ]
              }
            ],
            "service": "Drone_1",
            "slots": []
          }
        ],
        "speaker": "SYSTEM",
        "utterance": "Risk of physical damage! The drone has a damaged frame and low battery. It\u9225\u6a9a flying at an altitude of 1m.    (0:01) Risk of physical damage! There's a tree in the drone's flight path at a distance of 5m. "
      }
    ]
  },
  {
    "dialogue_id": "005_00014",
    "services": [
      "Drone_1"
    ],
    "turns": [
      {
        "frames": [
          {
            "actions": [
              {
                "act": "INFORM",
                "canonical_values": [
                  "warning"
                ],
                "slot": "risk_of_physical_damage",
                "values": [
                  "warning"
                ]
              },
              {
                "act": "INFORM",
                "canonical_values": [
                  "5.0"
                ],
                "slot": "altitude",
                "values": [
                  "5.0"
                ]
              },
              {
                "act": "INFORM",
                "canonical_values": [
                  "40.0"
                ],
                "slot": "battery_level",
                "values": [
                  "40.0"
                ]
              },
              {
                "act": "INFORM",
                "canonical_values": [
                  "0.0"
                ],
                "slot": "normal_frame",
                "values": [
                  "0.0"
                ]
              },
              {
                "act": "INFORM",
                "canonical_values": [
                  "19.0"
                ],
                "slot": "wind_speed",
                "values": [
                  "19.0"
                ]
              },
              {
                "act": "INFORM",
                "canonical_values": [
                  "40.0"
                ],
                "slot": "battery_level",
                "values": [
                  "40.0"
                ]
              },
              {
                "act": "INFORM",
                "canonical_values": [
                  "true"
                ],
                "slot": "object_inpath",
                "values": [
                  "true"
                ]
              },
              {
                "act": "INFORM",
                "canonical_values": [
                  "7"
                ],
                "slot": "object_distance",
                "values": [
                  "7"
                ]
              },
              {
                "act": "INFORM",
                "canonical_values": [
                  "tree 1"
                ],
                "slot": "object_name",
                "values": [
                  "tree 1"
                ]
              }
            ],
            "service": "Drone_1",
            "slots": []
          }
        ],
        "speaker": "SYSTEM",
        "utterance": "Risk of physical damage! The drone has a damaged frame and low battery. It\u9225\u6a9a flying in strong wind at an altitude of 5m.    (0:03) Risk of physical damage! There's a tree in the drone's flight path at a distance of 7m. "
      }
    ]
  },
  {
    "dialogue_id": "005_00015",
    "services": [
      "Drone_1"
    ],
    "turns": [
      {
        "frames": [
          {
            "actions": [
              {
                "act": "INFORM",
                "canonical_values": [
                  "warning"
                ],
                "slot": "risk_of_physical_damage",
                "values": [
                  "warning"
                ]
              },
              {
                "act": "INFORM",
                "canonical_values": [
                  "7.0"
                ],
                "slot": "altitude",
                "values": [
                  "7.0"
                ]
              },
              {
                "act": "INFORM",
                "canonical_values": [
                  "10.0"
                ],
                "slot": "battery_level",
                "values": [
                  "10.0"
                ]
              },
              {
                "act": "INFORM",
                "canonical_values": [
                  "true"
                ],
                "slot": "object_inpath",
                "values": [
                  "true"
                ]
              },
              {
                "act": "INFORM",
                "canonical_values": [
                  "4"
                ],
                "slot": "object_distance",
                "values": [
                  "4"
                ]
              },
              {
                "act": "INFORM",
                "canonical_values": [
                  "tree 1"
                ],
                "slot": "object_name",
                "values": [
                  "tree 1"
                ]
              }
            ],
            "service": "Drone_1",
            "slots": []
          }
        ],
        "speaker": "SYSTEM",
        "utterance": "Risk of physical damage! The drone has an empty battery. It\u9225\u6a9a flying at an altitude of 7m.    (0:04) Risk of physical damage! There's a tree in the drone's flight path at a distance of 4m. "
      }
    ]
  },
  {
    "dialogue_id": "005_00016",
    "services": [
      "Drone_1"
    ],
    "turns": [
      {
        "frames": [
          {
            "actions": [
              {
                "act": "INFORM",
                "canonical_values": [
                  "warning"
                ],
                "slot": "risk_of_physical_damage",
                "values": [
                  "warning"
                ]
              },
              {
                "act": "INFORM",
                "canonical_values": [
                  "0.0"
                ],
                "slot": "normal_frame",
                "values": [
                  "0.0"
                ]
              }
            ],
            "service": "Drone_1",
            "slots": []
          }
        ],
        "speaker": "SYSTEM",
        "utterance": "Risk of physical damage! The drone has a damaged frame. [SEP]"
      }
    ]
  },
  {
    "dialogue_id": "005_00017",
    "services": [
      "Drone_1"
    ],
    "turns": [
      {
        "frames": [
          {
            "actions": [
              {
                "act": "INFORM",
                "canonical_values": [
                  "warning"
                ],
                "slot": "risk_of_physical_damage",
                "values": [
                  "warning"
                ]
              },
              {
                "act": "INFORM",
                "canonical_values": [
                  "80.0"
                ],
                "slot": "altitude",
                "values": [
                  "80.0"
                ]
              },
              {
                "act": "INFORM",
                "canonical_values": [
                  "0.0"
                ],
                "slot": "battery_level",
                "values": [
                  "0.0"
                ]
              }
            ],
            "service": "Drone_1",
            "slots": []
          }
        ],
        "speaker": "SYSTEM",
        "utterance": "Risk of physical damage and lost connection! The drone has an empty battery. It\u9225\u6a9a flying at an altitude of 80m. The drone is 4650m away from the remote control.  [SEP]"
      }
    ]
  },
  {
    "dialogue_id": "005_00018",
    "services": [
      "Drone_1"
    ],
    "turns": [
      {
        "frames": [
          {
            "actions": [
              {
                "act": "INFORM",
                "canonical_values": [
                  "warning"
                ],
                "slot": "risk_of_physical_damage",
                "values": [
                  "warning"
                ]
              },
              {
                "act": "INFORM",
                "canonical_values": [
                  "200.0"
                ],
                "slot": "altitude",
                "values": [
                  "200.0"
                ]
              },
              {
                "act": "INFORM",
                "canonical_values": [
                  "0.0"
                ],
                "slot": "battery_level",
                "values": [
                  "0.0"
                ]
              },
              {
                "act": "INFORM",
                "canonical_values": [
                  "21.0"
                ],
                "slot": "wind_speed",
                "values": [
                  "21.0"
                ]
              },
              {
                "act": "INFORM",
                "canonical_values": [
                  "0.0"
                ],
                "slot": "battery_level",
                "values": [
                  "0.0"
                ]
              }
            ],
            "service": "Drone_1",
            "slots": []
          }
        ],
        "speaker": "SYSTEM",
        "utterance": "Risk of physical damage and lost connection! The drone has an empty battery. It\u9225\u6a9a flying at an altitude of 200m in strong wind. The drone is 4182m away from the remote control. [SEP]"
      }
    ]
  },
  {
    "dialogue_id": "005_00019",
    "services": [
      "Drone_1"
    ],
    "turns": [
      {
        "frames": [
          {
            "actions": [
              {
                "act": "INFORM",
                "canonical_values": [
                  "1.0"
                ],
                "slot": "lost_connection",
                "values": [
                  "1.0"
                ]
              },
              {
                "act": "INFORM",
                "canonical_values": [
                  "3216.0"
                ],
                "slot": "distance_from_remote_control",
                "values": [
                  "3216.0"
                ]
              },
              {
                "act": "INFORM",
                "canonical_values": [
                  "0.0"
                ],
                "slot": "battery_level",
                "values": [
                  "0.0"
                ]
              },
              {
                "act": "INFORM",
                "canonical_values": [
                  "warning"
                ],
                "slot": "risk_of_physical_damage",
                "values": [
                  "warning"
                ]
              },
              {
                "act": "INFORM",
                "canonical_values": [
                  "1.5"
                ],
                "slot": "object_distance",
                "values": [
                  "1.5"
                ]
              },
              {
                "act": "INFORM",
                "canonical_values": [
                  "true"
                ],
                "slot": "object_inpath",
                "values": [
                  "true"
                ]
              },
              {
                "act": "INFORM",
                "canonical_values": [
                  "1.5"
                ],
                "slot": "object_distance",
                "values": [
                  "1.5"
                ]
              },
              {
                "act": "INFORM",
                "canonical_values": [
                  "1.0"
                ],
                "slot": "altitude",
                "values": [
                  "1.0"
                ]
              },
              {
                "act": "INFORM",
                "canonical_values": [
                  "0.0"
                ],
                "slot": "battery_level",
                "values": [
                  "0.0"
                ]
              },
              {
                "act": "INFORM",
                "canonical_values": [
                  "16.0"
                ],
                "slot": "wind_speed",
                "values": [
                  "16.0"
                ]
              },
              {
                "act": "INFORM",
                "canonical_values": [
                  "0.0"
                ],
                "slot": "battery_level",
                "values": [
                  "0.0"
                ]
              },
              {
                "act": "INFORM",
                "canonical_values": [
                  "water"
                ],
                "slot": "object_name",
                "values": [
                  "water"
                ]
              }
            ],
            "service": "Drone_1",
            "slots": []
          }
        ],
        "speaker": "SYSTEM",
        "utterance": "Risk of physical damage! The drone has an empty battery. It\u9225\u6a9a flying in strong wind at an altitude of 1m.    (0:01) Risk of physical damage! There's a water in the drone's flight path at a distance of 1.5m. "
      }
    ]
  },
  {
    "dialogue_id": "005_00020",
    "services": [
      "Drone_1"
    ],
    "turns": [
      {
        "frames": [
          {
            "actions": [
              {
                "act": "INFORM",
                "canonical_values": [
                  "warning"
                ],
                "slot": "risk_of_physical_damage",
                "values": [
                  "warning"
                ]
              },
              {
                "act": "INFORM",
                "canonical_values": [
                  "true"
                ],
                "slot": "object_inpath",
                "values": [
                  "true"
                ]
              },
              {
                "act": "INFORM",
                "canonical_values": [
                  "5"
                ],
                "slot": "object_distance",
                "values": [
                  "5"
                ]
              },
              {
                "act": "INFORM",
                "canonical_values": [
                  "6.0"
                ],
                "slot": "altitude",
                "values": [
                  "6.0"
                ]
              },
              {
                "act": "INFORM",
                "canonical_values": [
                  "40.0"
                ],
                "slot": "battery_level",
                "values": [
                  "40.0"
                ]
              },
              {
                "act": "INFORM",
                "canonical_values": [
                  "0.0"
                ],
                "slot": "normal_frame",
                "values": [
                  "0.0"
                ]
              },
              {
                "act": "INFORM",
                "canonical_values": [
                  "tree 1"
                ],
                "slot": "object_name",
                "values": [
                  "tree 1"
                ]
              }
            ],
            "service": "Drone_1",
            "slots": []
          }
        ],
        "speaker": "SYSTEM",
        "utterance": "Risk of physical damage! The drone has a damaged frame and low battery. It\u9225\u6a9a flying at an altitude of 6m.    (0:00) Risk of physical damage! There's a tree in the drone's flight path at a distance of 5m. "
      }
    ]
  },
  {
    "dialogue_id": "005_00021",
    "services": [
      "Drone_1"
    ],
    "turns": [
      {
        "frames": [
          {
            "actions": [
              {
                "act": "INFORM",
                "canonical_values": [
                  "warning"
                ],
                "slot": "risk_of_physical_damage",
                "values": [
                  "warning"
                ]
              },
              {
                "act": "INFORM",
                "canonical_values": [
                  "true"
                ],
                "slot": "object_inpath",
                "values": [
                  "true"
                ]
              },
              {
                "act": "INFORM",
                "canonical_values": [
                  "6"
                ],
                "slot": "object_distance",
                "values": [
                  "6"
                ]
              },
              {
                "act": "INFORM",
                "canonical_values": [
                  "0.0"
                ],
                "slot": "normal_frame",
                "values": [
                  "0.0"
                ]
              },
              {
                "act": "INFORM",
                "canonical_values": [
                  "21.0"
                ],
                "slot": "wind_speed",
                "values": [
                  "21.0"
                ]
              },
              {
                "act": "INFORM",
                "canonical_values": [
                  "0.0"
                ],
                "slot": "battery_level",
                "values": [
                  "0.0"
                ]
              },
              {
                "act": "INFORM",
                "canonical_values": [
                  "tree 1"
                ],
                "slot": "object_name",
                "values": [
                  "tree 1"
                ]
              }
            ],
            "service": "Drone_1",
            "slots": []
          }
        ],
        "speaker": "SYSTEM",
        "utterance": "Risk of physical damage! The drone has a damaged frame and empty battery. It\u9225\u6a9a flying in strong wind.    (0:02) Risk of physical damage! There's a tree in the drone's flight path at a distance of 6m. "
      }
    ]
  },
  {
    "dialogue_id": "005_00022",
    "services": [
      "Drone_1"
    ],
    "turns": [
      {
        "frames": [
          {
            "actions": [
              {
                "act": "INFORM",
                "canonical_values": [
                  "warning"
                ],
                "slot": "risk_of_physical_damage",
                "values": [
                  "warning"
                ]
              },
              {
                "act": "INFORM",
                "canonical_values": [
                  "1.0"
                ],
                "slot": "going_backwards",
                "values": [
                  "1.0"
                ]
              },
              {
                "act": "INFORM",
                "canonical_values": [
                  "0.0"
                ],
                "slot": "normal_frame",
                "values": [
                  "0.0"
                ]
              }
            ],
            "service": "Drone_1",
            "slots": []
          }
        ],
        "speaker": "SYSTEM",
        "utterance": "Risk of physical damage! The drone has a damaged frame. It's flying backwards. [SEP]"
      }
    ]
  },
  {
    "dialogue_id": "005_00023",
    "services": [
      "Drone_1"
    ],
    "turns": [
      {
        "frames": [
          {
            "actions": [
              {
                "act": "INFORM",
                "canonical_values": [
                  "advisory"
                ],
                "slot": "risk_of_physical_damage",
                "values": [
                  "advisory"
                ]
              },
              {
                "act": "INFORM",
                "canonical_values": [
                  "true"
                ],
                "slot": "object_inpath",
                "values": [
                  "true"
                ]
              },
              {
                "act": "INFORM",
                "canonical_values": [
                  "6"
                ],
                "slot": "object_distance",
                "values": [
                  "6"
                ]
              },
              {
                "act": "INFORM",
                "canonical_values": [
                  "tree 1"
                ],
                "slot": "object_name",
                "values": [
                  "tree 1"
                ]
              }
            ],
            "service": "Drone_1",
            "slots": []
          }
        ],
        "speaker": "SYSTEM",
        "utterance": "(0:01) Risk of physical damage! There's a tree in the drone's flight path at a distance of 6m. "
      }
    ]
  },
  {
    "dialogue_id": "005_00024",
    "services": [
      "Drone_1"
    ],
    "turns": [
      {
        "frames": [
          {
            "actions": [
              {
                "act": "INFORM",
                "canonical_values": [
                  "warning"
                ],
                "slot": "risk_of_physical_damage",
                "values": [
                  "warning"
                ]
              },
              {
                "act": "INFORM",
                "canonical_values": [
                  "10.0"
                ],
                "slot": "altitude",
                "values": [
                  "10.0"
                ]
              },
              {
                "act": "INFORM",
                "canonical_values": [
                  "10.0"
                ],
                "slot": "battery_level",
                "values": [
                  "10.0"
                ]
              },
              {
                "act": "INFORM",
                "canonical_values": [
                  "0.0"
                ],
                "slot": "normal_frame",
                "values": [
                  "0.0"
                ]
              },
              {
                "act": "INFORM",
                "canonical_values": [
                  "1"
                ],
                "slot": "object_distance",
                "values": [
                  "1"
                ]
              },
              {
                "act": "INFORM",
                "canonical_values": [
                  "0.0"
                ],
                "slot": "pilot_experienced",
                "values": [
                  "0.0"
                ]
              },
              {
                "act": "INFORM",
                "canonical_values": [
                  "1"
                ],
                "slot": "object_distance",
                "values": [
                  "1"
                ]
              }
            ],
            "service": "Drone_1",
            "slots": []
          }
        ],
        "speaker": "SYSTEM",
        "utterance": "Risk of physical damage! The drone has a damaged frame and empty battery. It\u9225\u6a9a flying at an altitude of 10m.    (0:04) Risk of physical damage! There's water only 1m away. [SEP]"
      }
    ]
  }
]