data,utterance
"SYSTEM | service_name=Drone_1,description={schema['description']} | inform,name=risk_of_physical_damage,description=risk of physical damage or not, values = warning | inform,name=object_distance,description=Distance of object, values = 2 | inform,name=altitude,description=Flying altitude, values = 3.0 | inform,name=battery_level,description=Battery level, values = 20.0 | inform,name=object_name,description=Name of the object, values = speed boat{""frames"": [{""actions"": [{""act"": ""INFORM"", ""canonical_values"": [""warning""], ""slot"": ""risk_of_physical_damage"", ""values"": [""warning""]}, {""act"": ""INFORM"", ""canonical_values"": [""2""], ""slot"": ""object_distance"", ""values"": [""2""]}, {""act"": ""INFORM"", ""canonical_values"": [""3.0""], ""slot"": ""altitude"", ""values"": [""3.0""]}, {""act"": ""INFORM"", ""canonical_values"": [""20.0""], ""slot"": ""battery_level"", ""values"": [""20.0""]}, {""act"": ""INFORM"", ""canonical_values"": [""speed boat""], ""slot"": ""object_name"", ""values"": [""speed boat""]}], ""service"": ""Drone_1"", ""slots"": []}], ""speaker"": ""SYSTEM""}",Risk of physical damage! The drone has low battery. It's flying at an altitude of 3m.     Risk of physical damage! There's a speedboat only 2m away. 
"SYSTEM | service_name=Drone_1,description={schema['description']} | inform,name=risk_of_physical_damage,description=risk of physical damage or not, values = warning | inform,name=altitude,description=Flying altitude, values = 2.0 | inform,name=battery_level,description=Battery level, values = 0.0{""frames"": [{""actions"": [{""act"": ""INFORM"", ""canonical_values"": [""warning""], ""slot"": ""risk_of_physical_damage"", ""values"": [""warning""]}, {""act"": ""INFORM"", ""canonical_values"": [""2.0""], ""slot"": ""altitude"", ""values"": [""2.0""]}, {""act"": ""INFORM"", ""canonical_values"": [""0.0""], ""slot"": ""battery_level"", ""values"": [""0.0""]}], ""service"": ""Drone_1"", ""slots"": []}], ""speaker"": ""SYSTEM""}",Risk of physical damage! The drone has an empty battery. It's flying at an altitude of 2m. 
"SYSTEM | service_name=Drone_1,description={schema['description']} | inform,name=risk_of_physical_damage,description=risk of physical damage or not, values = warning | inform,name=object_inpath,description=Object is in path or not,examples =true,false, values = true | inform,name=object_distance,description=Distance of object, values = 8 | inform,name=normal_frame,description=Normal frame or not,examples =1.0,0.0, values = 0.0 | inform,name=object_name,description=Name of the object, values = sailboat{""frames"": [{""actions"": [{""act"": ""INFORM"", ""canonical_values"": [""warning""], ""slot"": ""risk_of_physical_damage"", ""values"": [""warning""]}, {""act"": ""INFORM"", ""canonical_values"": [""true""], ""slot"": ""object_inpath"", ""values"": [""true""]}, {""act"": ""INFORM"", ""canonical_values"": [""8""], ""slot"": ""object_distance"", ""values"": [""8""]}, {""act"": ""INFORM"", ""canonical_values"": [""0.0""], ""slot"": ""normal_frame"", ""values"": [""0.0""]}, {""act"": ""INFORM"", ""canonical_values"": [""sailboat""], ""slot"": ""object_name"", ""values"": [""sailboat""]}], ""service"": ""Drone_1"", ""slots"": []}], ""speaker"": ""SYSTEM""}",Risk of physical damage! The drone has a damaged frame.     Risk of physical damage! There's a sailboat in the drone's flight path at a distance of 8m. 
"SYSTEM | service_name=Drone_1,description={schema['description']} | inform,name=risk_of_physical_damage,description=risk of physical damage or not, values = warning | inform,name=object_distance,description=Distance of object, values = 0.5 | inform,name=altitude,description=Flying altitude, values = 1.0 | inform,name=battery_level,description=Battery level, values = 40.0 | inform,name=normal_frame,description=Normal frame or not,examples =1.0,0.0, values = 0.0 | inform,name=object_distance,description=Distance of object, values = 0.5 | inform,name=risk_of_human_damage,description=risk of human damage or not,examples =1.0,0.0, values = 1.0 | inform,name=object_type,description=Type of object,examples =Human,Animal,Wall,Tree,Statue,Post,Bridge,Forest,Unindentified,House,Branch (Rope),Bird,Lamp,Sun,Glass,Drone,AirTurbulence, values = Human | inform,name=object_name,description=Name of the object, values = speed boat{""frames"": [{""actions"": [{""act"": ""INFORM"", ""canonical_values"": [""warning""], ""slot"": ""risk_of_physical_damage"", ""values"": [""warning""]}, {""act"": ""INFORM"", ""canonical_values"": [""0.5""], ""slot"": ""object_distance"", ""values"": [""0.5""]}, {""act"": ""INFORM"", ""canonical_values"": [""1.0""], ""slot"": ""altitude"", ""values"": [""1.0""]}, {""act"": ""INFORM"", ""canonical_values"": [""40.0""], ""slot"": ""battery_level"", ""values"": [""40.0""]}, {""act"": ""INFORM"", ""canonical_values"": [""0.0""], ""slot"": ""normal_frame"", ""values"": [""0.0""]}, {""act"": ""INFORM"", ""canonical_values"": [""0.5""], ""slot"": ""object_distance"", ""values"": [""0.5""]}, {""act"": ""INFORM"", ""canonical_values"": [""1.0""], ""slot"": ""risk_of_human_damage"", ""values"": [""1.0""]}, {""act"": ""INFORM"", ""canonical_values"": [""Human""], ""slot"": ""object_type"", ""values"": [""Human""]}, {""act"": ""INFORM"", ""canonical_values"": [""speed boat""], ""slot"": ""object_name"", ""values"": [""speed boat""]}], ""service"": ""Drone_1"", ""slots"": []}], ""speaker"": ""SYSTEM""}",Risk of physical damage! The drone has low battery. It's flying at an altitude of 1m.     Risk of physical and human damage! There's a speedboat and a person on the speedboat only .5m away. 
"SYSTEM | service_name=Drone_1,description={schema['description']} | inform,name=risk_of_physical_damage,description=risk of physical damage or not, values = warning | inform,name=object_inpath,description=Object is in path or not,examples =true,false, values = true | inform,name=object_distance,description=Distance of object, values = 8 | inform,name=altitude,description=Flying altitude, values = 3.0 | inform,name=battery_level,description=Battery level, values = 30.0 | inform,name=normal_frame,description=Normal frame or not,examples =1.0,0.0, values = 0.0 | inform,name=object_name,description=Name of the object, values = sailboat{""frames"": [{""actions"": [{""act"": ""INFORM"", ""canonical_values"": [""warning""], ""slot"": ""risk_of_physical_damage"", ""values"": [""warning""]}, {""act"": ""INFORM"", ""canonical_values"": [""true""], ""slot"": ""object_inpath"", ""values"": [""true""]}, {""act"": ""INFORM"", ""canonical_values"": [""8""], ""slot"": ""object_distance"", ""values"": [""8""]}, {""act"": ""INFORM"", ""canonical_values"": [""3.0""], ""slot"": ""altitude"", ""values"": [""3.0""]}, {""act"": ""INFORM"", ""canonical_values"": [""30.0""], ""slot"": ""battery_level"", ""values"": [""30.0""]}, {""act"": ""INFORM"", ""canonical_values"": [""0.0""], ""slot"": ""normal_frame"", ""values"": [""0.0""]}, {""act"": ""INFORM"", ""canonical_values"": [""sailboat""], ""slot"": ""object_name"", ""values"": [""sailboat""]}], ""service"": ""Drone_1"", ""slots"": []}], ""speaker"": ""SYSTEM""}",Risk of physical damage! The drone has low battery. It's flying at an altitude of 3m.     Risk of physical damage! There's a sailboat in the drone's flight path at a distance of 8m. 
"SYSTEM | service_name=Drone_1,description={schema['description']} | inform,name=risk_of_physical_damage,description=risk of physical damage or not, values = warning | inform,name=object_inpath,description=Object is in path or not,examples =true,false, values = true | inform,name=object_distance,description=Distance of object, values = 3 | inform,name=object_name,description=Name of the object, values = speed boat{""frames"": [{""actions"": [{""act"": ""INFORM"", ""canonical_values"": [""warning""], ""slot"": ""risk_of_physical_damage"", ""values"": [""warning""]}, {""act"": ""INFORM"", ""canonical_values"": [""true""], ""slot"": ""object_inpath"", ""values"": [""true""]}, {""act"": ""INFORM"", ""canonical_values"": [""3""], ""slot"": ""object_distance"", ""values"": [""3""]}, {""act"": ""INFORM"", ""canonical_values"": [""speed boat""], ""slot"": ""object_name"", ""values"": [""speed boat""]}], ""service"": ""Drone_1"", ""slots"": []}], ""speaker"": ""SYSTEM""}", Risk of physical damage! There's a speedboat in the drone's flight path at a distance of 3m. 
"SYSTEM | service_name=Drone_1,description={schema['description']} | inform,name=risk_of_physical_damage,description=risk of physical damage or not, values = warning | inform,name=altitude,description=Flying altitude, values = 7.0 | inform,name=battery_level,description=Battery level, values = 0.0 | inform,name=object_distance,description=Distance of object, values = 1 | inform,name=object_inpath,description=Object is in path or not,examples =true,false, values = true | inform,name=object_distance,description=Distance of object, values = 1 | inform,name=object_name,description=Name of the object, values = sailboat{""frames"": [{""actions"": [{""act"": ""INFORM"", ""canonical_values"": [""warning""], ""slot"": ""risk_of_physical_damage"", ""values"": [""warning""]}, {""act"": ""INFORM"", ""canonical_values"": [""7.0""], ""slot"": ""altitude"", ""values"": [""7.0""]}, {""act"": ""INFORM"", ""canonical_values"": [""0.0""], ""slot"": ""battery_level"", ""values"": [""0.0""]}, {""act"": ""INFORM"", ""canonical_values"": [""1""], ""slot"": ""object_distance"", ""values"": [""1""]}, {""act"": ""INFORM"", ""canonical_values"": [""true""], ""slot"": ""object_inpath"", ""values"": [""true""]}, {""act"": ""INFORM"", ""canonical_values"": [""1""], ""slot"": ""object_distance"", ""values"": [""1""]}, {""act"": ""INFORM"", ""canonical_values"": [""sailboat""], ""slot"": ""object_name"", ""values"": [""sailboat""]}], ""service"": ""Drone_1"", ""slots"": []}], ""speaker"": ""SYSTEM""}",Risk of physical damage! The drone has an empty battery. It's flying at an altitude of 7m.     Risk of physical damage! There's a sailboat in the drone's flight path at a distance of 1m. 
"SYSTEM | service_name=Drone_1,description={schema['description']} | inform,name=risk_of_physical_damage,description=risk of physical damage or not, values = warning | inform,name=object_inpath,description=Object is in path or not,examples =true,false, values = true | inform,name=object_distance,description=Distance of object, values = 5 | inform,name=normal_frame,description=Normal frame or not,examples =1.0,0.0, values = 0.0 | inform,name=object_name,description=Name of the object, values = speed boat{""frames"": [{""actions"": [{""act"": ""INFORM"", ""canonical_values"": [""warning""], ""slot"": ""risk_of_physical_damage"", ""values"": [""warning""]}, {""act"": ""INFORM"", ""canonical_values"": [""true""], ""slot"": ""object_inpath"", ""values"": [""true""]}, {""act"": ""INFORM"", ""canonical_values"": [""5""], ""slot"": ""object_distance"", ""values"": [""5""]}, {""act"": ""INFORM"", ""canonical_values"": [""0.0""], ""slot"": ""normal_frame"", ""values"": [""0.0""]}, {""act"": ""INFORM"", ""canonical_values"": [""speed boat""], ""slot"": ""object_name"", ""values"": [""speed boat""]}], ""service"": ""Drone_1"", ""slots"": []}], ""speaker"": ""SYSTEM""}",Risk of physical damage! The drone has a damaged frame.     Risk of physical damage! There's a speedboat in the drone's flight path at a distance of 5m. 
"SYSTEM | service_name=Drone_1,description={schema['description']} | inform,name=risk_of_physical_damage,description=risk of physical damage or not, values = warning | inform,name=object_inpath,description=Object is in path or not,examples =true,false, values = true | inform,name=object_distance,description=Distance of object, values = 4 | inform,name=object_name,description=Name of the object, values = speed boat 1{""frames"": [{""actions"": [{""act"": ""INFORM"", ""canonical_values"": [""warning""], ""slot"": ""risk_of_physical_damage"", ""values"": [""warning""]}, {""act"": ""INFORM"", ""canonical_values"": [""true""], ""slot"": ""object_inpath"", ""values"": [""true""]}, {""act"": ""INFORM"", ""canonical_values"": [""4""], ""slot"": ""object_distance"", ""values"": [""4""]}, {""act"": ""INFORM"", ""canonical_values"": [""speed boat 1""], ""slot"": ""object_name"", ""values"": [""speed boat 1""]}], ""service"": ""Drone_1"", ""slots"": []}], ""speaker"": ""SYSTEM""}", Risk of physical damage! There's a speedboat in the drone's flight path at a distance of 1m. 
"SYSTEM | service_name=Drone_1,description={schema['description']} | inform,name=risk_of_physical_damage,description=risk of physical damage or not, values = warning | inform,name=object_distance,description=Distance of object, values = 1 | inform,name=object_inpath,description=Object is in path or not,examples =true,false, values = true | inform,name=object_distance,description=Distance of object, values = 1 | inform,name=object_name,description=Name of the object, values = sailboat 1{""frames"": [{""actions"": [{""act"": ""INFORM"", ""canonical_values"": [""warning""], ""slot"": ""risk_of_physical_damage"", ""values"": [""warning""]}, {""act"": ""INFORM"", ""canonical_values"": [""1""], ""slot"": ""object_distance"", ""values"": [""1""]}, {""act"": ""INFORM"", ""canonical_values"": [""true""], ""slot"": ""object_inpath"", ""values"": [""true""]}, {""act"": ""INFORM"", ""canonical_values"": [""1""], ""slot"": ""object_distance"", ""values"": [""1""]}, {""act"": ""INFORM"", ""canonical_values"": [""sailboat 1""], ""slot"": ""object_name"", ""values"": [""sailboat 1""]}], ""service"": ""Drone_1"", ""slots"": []}], ""speaker"": ""SYSTEM""}", Risk of physical damage! There's a sailboat in the drone's flight path at a distance of 1m. 
"SYSTEM | service_name=Drone_1,description={schema['description']} | inform,name=risk_of_physical_damage,description=risk of physical damage or not, values = warning | inform,name=object_distance,description=Distance of object, values = 1 | inform,name=altitude,description=Flying altitude, values = 8.0 | inform,name=battery_level,description=Battery level, values = 20.0 | inform,name=object_distance,description=Distance of object, values = 1 | inform,name=risk_of_human_damage,description=risk of human damage or not,examples =1.0,0.0, values = 1.0 | inform,name=object_type,description=Type of object,examples =Human,Animal,Wall,Tree,Statue,Post,Bridge,Forest,Unindentified,House,Branch (Rope),Bird,Lamp,Sun,Glass,Drone,AirTurbulence, values = Human | inform,name=object_inpath,description=Object is in path or not,examples =true,false, values = true | inform,name=object_distance,description=Distance of object, values = 1 | inform,name=object_name,description=Name of the object, values = sailboat{""frames"": [{""actions"": [{""act"": ""INFORM"", ""canonical_values"": [""warning""], ""slot"": ""risk_of_physical_damage"", ""values"": [""warning""]}, {""act"": ""INFORM"", ""canonical_values"": [""1""], ""slot"": ""object_distance"", ""values"": [""1""]}, {""act"": ""INFORM"", ""canonical_values"": [""8.0""], ""slot"": ""altitude"", ""values"": [""8.0""]}, {""act"": ""INFORM"", ""canonical_values"": [""20.0""], ""slot"": ""battery_level"", ""values"": [""20.0""]}, {""act"": ""INFORM"", ""canonical_values"": [""1""], ""slot"": ""object_distance"", ""values"": [""1""]}, {""act"": ""INFORM"", ""canonical_values"": [""1.0""], ""slot"": ""risk_of_human_damage"", ""values"": [""1.0""]}, {""act"": ""INFORM"", ""canonical_values"": [""Human""], ""slot"": ""object_type"", ""values"": [""Human""]}, {""act"": ""INFORM"", ""canonical_values"": [""true""], ""slot"": ""object_inpath"", ""values"": [""true""]}, {""act"": ""INFORM"", ""canonical_values"": [""1""], ""slot"": ""object_distance"", ""values"": [""1""]}, {""act"": ""INFORM"", ""canonical_values"": [""sailboat""], ""slot"": ""object_name"", ""values"": [""sailboat""]}], ""service"": ""Drone_1"", ""slots"": []}], ""speaker"": ""SYSTEM""}",Risk of physical damage! The drone has low battery. It's flying at an altitude of 20m.     Risk of physical damage! There's a person on a sailboat in the drone's flight path at a distance of 1m. The sailboat is also only 1m away. 
"SYSTEM | service_name=Drone_1,description={schema['description']} | inform,name=risk_of_physical_damage,description=risk of physical damage or not, values = warning | inform,name=object_distance,description=Distance of object, values = 0.5 | inform,name=altitude,description=Flying altitude, values = 3.0 | inform,name=battery_level,description=Battery level, values = 0.0 | inform,name=normal_frame,description=Normal frame or not,examples =1.0,0.0, values = 0.0 | inform,name=object_name,description=Name of the object, values = sailboat 1{""frames"": [{""actions"": [{""act"": ""INFORM"", ""canonical_values"": [""warning""], ""slot"": ""risk_of_physical_damage"", ""values"": [""warning""]}, {""act"": ""INFORM"", ""canonical_values"": [""0.5""], ""slot"": ""object_distance"", ""values"": [""0.5""]}, {""act"": ""INFORM"", ""canonical_values"": [""3.0""], ""slot"": ""altitude"", ""values"": [""3.0""]}, {""act"": ""INFORM"", ""canonical_values"": [""0.0""], ""slot"": ""battery_level"", ""values"": [""0.0""]}, {""act"": ""INFORM"", ""canonical_values"": [""0.0""], ""slot"": ""normal_frame"", ""values"": [""0.0""]}, {""act"": ""INFORM"", ""canonical_values"": [""sailboat 1""], ""slot"": ""object_name"", ""values"": [""sailboat 1""]}], ""service"": ""Drone_1"", ""slots"": []}], ""speaker"": ""SYSTEM""}",Risk of physical damage! The drone has a damaged frame and empty battery. It's flying at an altitude of 3m.     Risk of physical damage! There's a sailboat only .5m away. 
"SYSTEM | service_name=Drone_1,description={schema['description']} | inform,name=risk_of_physical_damage,description=risk of physical damage or not, values = warning | inform,name=altitude,description=Flying altitude, values = 5.0 | inform,name=battery_level,description=Battery level, values = 20.0 | inform,name=normal_frame,description=Normal frame or not,examples =1.0,0.0, values = 0.0 | inform,name=wind_speed,description=Wind speed, values = 21.0 | inform,name=battery_level,description=Battery level, values = 20.0 | inform,name=object_distance,description=Distance of object, values = 0.5 | inform,name=object_inpath,description=Object is in path or not,examples =true,false, values = true | inform,name=object_distance,description=Distance of object, values = 0.5{""frames"": [{""actions"": [{""act"": ""INFORM"", ""canonical_values"": [""warning""], ""slot"": ""risk_of_physical_damage"", ""values"": [""warning""]}, {""act"": ""INFORM"", ""canonical_values"": [""5.0""], ""slot"": ""altitude"", ""values"": [""5.0""]}, {""act"": ""INFORM"", ""canonical_values"": [""20.0""], ""slot"": ""battery_level"", ""values"": [""20.0""]}, {""act"": ""INFORM"", ""canonical_values"": [""0.0""], ""slot"": ""normal_frame"", ""values"": [""0.0""]}, {""act"": ""INFORM"", ""canonical_values"": [""21.0""], ""slot"": ""wind_speed"", ""values"": [""21.0""]}, {""act"": ""INFORM"", ""canonical_values"": [""20.0""], ""slot"": ""battery_level"", ""values"": [""20.0""]}, {""act"": ""INFORM"", ""canonical_values"": [""0.5""], ""slot"": ""object_distance"", ""values"": [""0.5""]}, {""act"": ""INFORM"", ""canonical_values"": [""true""], ""slot"": ""object_inpath"", ""values"": [""true""]}, {""act"": ""INFORM"", ""canonical_values"": [""0.5""], ""slot"": ""object_distance"", ""values"": [""0.5""]}], ""service"": ""Drone_1"", ""slots"": []}], ""speaker"": ""SYSTEM""}",Risk of physical damage! The drone has a damaged frame and low battery. It's flying at an altitude of 5m in strong wind.     Risk of physical damage! There's a sailboat in the drone's flight path at a distance of .5m. 
"SYSTEM | service_name=Drone_1,description={schema['description']} | inform,name=risk_of_physical_damage,description=risk of physical damage or not, values = warning | inform,name=object_distance,description=Distance of object, values = 0.7 | inform,name=object_distance,description=Distance of object, values = 0.7 | inform,name=risk_of_human_damage,description=risk of human damage or not,examples =1.0,0.0, values = 1.0 | inform,name=object_type,description=Type of object,examples =Human,Animal,Wall,Tree,Statue,Post,Bridge,Forest,Unindentified,House,Branch (Rope),Bird,Lamp,Sun,Glass,Drone,AirTurbulence, values = Human | inform,name=object_inpath,description=Object is in path or not,examples =true,false, values = true | inform,name=object_distance,description=Distance of object, values = 0.7{""frames"": [{""actions"": [{""act"": ""INFORM"", ""canonical_values"": [""warning""], ""slot"": ""risk_of_physical_damage"", ""values"": [""warning""]}, {""act"": ""INFORM"", ""canonical_values"": [""0.7""], ""slot"": ""object_distance"", ""values"": [""0.7""]}, {""act"": ""INFORM"", ""canonical_values"": [""0.7""], ""slot"": ""object_distance"", ""values"": [""0.7""]}, {""act"": ""INFORM"", ""canonical_values"": [""1.0""], ""slot"": ""risk_of_human_damage"", ""values"": [""1.0""]}, {""act"": ""INFORM"", ""canonical_values"": [""Human""], ""slot"": ""object_type"", ""values"": [""Human""]}, {""act"": ""INFORM"", ""canonical_values"": [""true""], ""slot"": ""object_inpath"", ""values"": [""true""]}, {""act"": ""INFORM"", ""canonical_values"": [""0.7""], ""slot"": ""object_distance"", ""values"": [""0.7""]}], ""service"": ""Drone_1"", ""slots"": []}], ""speaker"": ""SYSTEM""}", Risk of physical and human damage! There's a person in the drone's flight path at a distance of .7m. 
