[
  {
    "dialogue_id": "001_00000",
    "services": [
      "Drone_1"
    ],
    "turns": [
      {
        "frames": [
          {
            "actions": [
              {
                "act": "INFORM",
                "canonical_values": [
                  "warning"
                ],
                "slot": "risk_of_physical_damage",
                "values": [
                  "warning"
                ]
              },
              {
                "act": "INFORM",
                "canonical_values": [
                  "20.0"
                ],
                "slot": "altitude",
                "values": [
                  "20.0"
                ]
              },
              {
                "act": "INFORM",
                "canonical_values": [
                  "30.0"
                ],
                "slot": "battery_level",
                "values": [
                  "30.0"
                ]
              },
              {
                "act": "INFORM",
                "canonical_values": [
                  "0.0"
                ],
                "slot": "normal_frame",
                "values": [
                  "0.0"
                ]
              },
              {
                "act": "INFORM",
                "canonical_values": [
                  "true"
                ],
                "slot": "object_inpath",
                "values": [
                  "true"
                ]
              },
              {
                "act": "INFORM",
                "canonical_values": [
                  "3"
                ],
                "slot": "object_distance",
                "values": [
                  "3"
                ]
              },
              {
                "act": "INFORM",
                "canonical_values": [
                  "stairs"
                ],
                "slot": "object_name",
                "values": [
                  "stairs"
                ]
              }
            ],
            "service": "Drone_1",
            "slots": []
          }
        ],
        "speaker": "SYSTEM",
        "utterance": "Risk of physical damage! The drone's frame is damaged and the battery is running low. It's also flying with an altitude of 20m.     Risk of physical damage! There are stairs 3m away and in the drone's flight path, and a building only 2m away. "
      }
    ]
  },
  {
    "dialogue_id": "001_00001",
    "services": [
      "Drone_1"
    ],
    "turns": [
      {
        "frames": [
          {
            "actions": [
              {
                "act": "INFORM",
                "canonical_values": [
                  "informative"
                ],
                "slot": "risk_of_physical_damage",
                "values": [
                  "informative"
                ]
              },
              {
                "act": "INFORM",
                "canonical_values": [
                  "true"
                ],
                "slot": "object_inpath",
                "values": [
                  "true"
                ]
              },
              {
                "act": "INFORM",
                "canonical_values": [
                  "5"
                ],
                "slot": "object_distance",
                "values": [
                  "5"
                ]
              },
              {
                "act": "INFORM",
                "canonical_values": [
                  "wall 1 inside building"
                ],
                "slot": "object_name",
                "values": [
                  "wall 1 inside building"
                ]
              }
            ],
            "service": "Drone_1",
            "slots": []
          }
        ],
        "speaker": "SYSTEM",
        "utterance": " Risk of physical damage! A wall is in the drone's flight path and only 5m away. "
      }
    ]
  },
  {
    "dialogue_id": "001_00002",
    "services": [
      "Drone_1"
    ],
    "turns": [
      {
        "frames": [
          {
            "actions": [
              {
                "act": "INFORM",
                "canonical_values": [
                  "informative"
                ],
                "slot": "risk_of_physical_damage",
                "values": [
                  "informative"
                ]
              },
              {
                "act": "INFORM",
                "canonical_values": [
                  "1.5"
                ],
                "slot": "object_distance",
                "values": [
                  "1.5"
                ]
              },
              {
                "act": "INFORM",
                "canonical_values": [
                  "bridge in a building"
                ],
                "slot": "object_name",
                "values": [
                  "bridge in a building"
                ]
              }
            ],
            "service": "Drone_1",
            "slots": []
          }
        ],
        "speaker": "SYSTEM",
        "utterance": " Risk of physical damage! There's a wall in 5m in the flight path. The drone is also flying only 1.5m from a bridge. "
      }
    ]
  },
  {
    "dialogue_id": "001_00003",
    "services": [
      "Drone_1"
    ],
    "turns": [
      {
        "frames": [
          {
            "actions": [
              {
                "act": "INFORM",
                "canonical_values": [
                  "warning"
                ],
                "slot": "risk_of_physical_damage",
                "values": [
                  "warning"
                ]
              },
              {
                "act": "INFORM",
                "canonical_values": [
                  "2"
                ],
                "slot": "object_distance",
                "values": [
                  "2"
                ]
              },
              {
                "act": "INFORM",
                "canonical_values": [
                  "true"
                ],
                "slot": "object_inpath",
                "values": [
                  "true"
                ]
              },
              {
                "act": "INFORM",
                "canonical_values": [
                  "2"
                ],
                "slot": "object_distance",
                "values": [
                  "2"
                ]
              },
              {
                "act": "INFORM",
                "canonical_values": [
                  "1.0"
                ],
                "slot": "indoor",
                "values": [
                  "1.0"
                ]
              },
              {
                "act": "INFORM",
                "canonical_values": [
                  "8.0"
                ],
                "slot": "altitude",
                "values": [
                  "8.0"
                ]
              },
              {
                "act": "INFORM",
                "canonical_values": [
                  "10.0"
                ],
                "slot": "battery_level",
                "values": [
                  "10.0"
                ]
              },
              {
                "act": "INFORM",
                "canonical_values": [
                  "0.0"
                ],
                "slot": "normal_frame",
                "values": [
                  "0.0"
                ]
              },
              {
                "act": "INFORM",
                "canonical_values": [
                  "fence"
                ],
                "slot": "object_name",
                "values": [
                  "fence"
                ]
              }
            ],
            "service": "Drone_1",
            "slots": []
          }
        ],
        "speaker": "SYSTEM",
        "utterance": "Risk of physical damage! The frame is damaged and the battery is empty. The drone is also flying at an altitude of 8m while indoors.     Risk of physical damage! There's a railing in the drone's path in 2m. "
      }
    ]
  },
  {
    "dialogue_id": "001_00004",
    "services": [
      "Drone_1"
    ],
    "turns": [
      {
        "frames": [
          {
            "actions": [
              {
                "act": "INFORM",
                "canonical_values": [
                  "warning"
                ],
                "slot": "risk_of_physical_damage",
                "values": [
                  "warning"
                ]
              },
              {
                "act": "INFORM",
                "canonical_values": [
                  "true"
                ],
                "slot": "object_inpath",
                "values": [
                  "true"
                ]
              },
              {
                "act": "INFORM",
                "canonical_values": [
                  "3"
                ],
                "slot": "object_distance",
                "values": [
                  "3"
                ]
              },
              {
                "act": "INFORM",
                "canonical_values": [
                  "1.0"
                ],
                "slot": "indoor",
                "values": [
                  "1.0"
                ]
              },
              {
                "act": "INFORM",
                "canonical_values": [
                  "wall 1"
                ],
                "slot": "object_name",
                "values": [
                  "wall 1"
                ]
              }
            ],
            "service": "Drone_1",
            "slots": []
          }
        ],
        "speaker": "SYSTEM",
        "utterance": "Risk of physical damage! The drone is flying in a dark indoor setting.     Risk of physical damage! There's a wall in the path with a distance of 3m. "
      }
    ]
  },
  {
    "dialogue_id": "001_00005",
    "services": [
      "Drone_1"
    ],
    "turns": [
      {
        "frames": [
          {
            "actions": [
              {
                "act": "INFORM",
                "canonical_values": [
                  "warning"
                ],
                "slot": "risk_of_physical_damage",
                "values": [
                  "warning"
                ]
              },
              {
                "act": "INFORM",
                "canonical_values": [
                  "1.0"
                ],
                "slot": "indoor",
                "values": [
                  "1.0"
                ]
              },
              {
                "act": "INFORM",
                "canonical_values": [
                  "0.0"
                ],
                "slot": "normal_frame",
                "values": [
                  "0.0"
                ]
              },
              {
                "act": "INFORM",
                "canonical_values": [
                  "1"
                ],
                "slot": "object_distance",
                "values": [
                  "1"
                ]
              },
              {
                "act": "INFORM",
                "canonical_values": [
                  "true"
                ],
                "slot": "object_inpath",
                "values": [
                  "true"
                ]
              },
              {
                "act": "INFORM",
                "canonical_values": [
                  "1"
                ],
                "slot": "object_distance",
                "values": [
                  "1"
                ]
              },
              {
                "act": "INFORM",
                "canonical_values": [
                  "wood stair 1"
                ],
                "slot": "object_name",
                "values": [
                  "wood stair 1"
                ]
              }
            ],
            "service": "Drone_1",
            "slots": []
          }
        ],
        "speaker": "SYSTEM",
        "utterance": "Risk of physical damage! The drone is flying indoors with a damaged frame.     Risk of physical damage! There's a wooden column 1m away in the drone's flight path. "
      }
    ]
  },
  {
    "dialogue_id": "001_00006",
    "services": [
      "Drone_1"
    ],
    "turns": [
      {
        "frames": [
          {
            "actions": [
              {
                "act": "INFORM",
                "canonical_values": [
                  "warning"
                ],
                "slot": "risk_of_physical_damage",
                "values": [
                  "warning"
                ]
              },
              {
                "act": "INFORM",
                "canonical_values": [
                  "0.5"
                ],
                "slot": "object_distance",
                "values": [
                  "0.5"
                ]
              },
              {
                "act": "INFORM",
                "canonical_values": [
                  "0.5"
                ],
                "slot": "object_distance",
                "values": [
                  "0.5"
                ]
              },
              {
                "act": "INFORM",
                "canonical_values": [
                  "dark"
                ],
                "slot": "weather",
                "values": [
                  "dark"
                ]
              },
              {
                "act": "INFORM",
                "canonical_values": [
                  "1.0"
                ],
                "slot": "indoor",
                "values": [
                  "1.0"
                ]
              },
              {
                "act": "INFORM",
                "canonical_values": [
                  "1.0"
                ],
                "slot": "altitude",
                "values": [
                  "1.0"
                ]
              },
              {
                "act": "INFORM",
                "canonical_values": [
                  "0.0"
                ],
                "slot": "battery_level",
                "values": [
                  "0.0"
                ]
              },
              {
                "act": "INFORM",
                "canonical_values": [
                  "0.0"
                ],
                "slot": "normal_frame",
                "values": [
                  "0.0"
                ]
              },
              {
                "act": "INFORM",
                "canonical_values": [
                  "wall 1"
                ],
                "slot": "object_name",
                "values": [
                  "wall 1"
                ]
              }
            ],
            "service": "Drone_1",
            "slots": []
          }
        ],
        "speaker": "SYSTEM",
        "utterance": "Risk of physical damage! The battery is completely empty. The drone is flying in a dark indoor setting with a damaged frame at an altitude of 1m.     Risk of physical damage! The drone is flying next to a wall only 0.5m away.   Risk of physical damage! There's a doorway in 7m in the flight path. "
      }
    ]
  },
  {
    "dialogue_id": "001_00007",
    "services": [
      "Drone_1"
    ],
    "turns": [
      {
        "frames": [
          {
            "actions": [
              {
                "act": "INFORM",
                "canonical_values": [
                  "warning"
                ],
                "slot": "risk_of_physical_damage",
                "values": [
                  "warning"
                ]
              },
              {
                "act": "INFORM",
                "canonical_values": [
                  "1"
                ],
                "slot": "object_distance",
                "values": [
                  "1"
                ]
              },
              {
                "act": "INFORM",
                "canonical_values": [
                  "3.0"
                ],
                "slot": "altitude",
                "values": [
                  "3.0"
                ]
              },
              {
                "act": "INFORM",
                "canonical_values": [
                  "0.0"
                ],
                "slot": "battery_level",
                "values": [
                  "0.0"
                ]
              },
              {
                "act": "INFORM",
                "canonical_values": [
                  "0.0"
                ],
                "slot": "normal_frame",
                "values": [
                  "0.0"
                ]
              },
              {
                "act": "INFORM",
                "canonical_values": [
                  "building"
                ],
                "slot": "object_name",
                "values": [
                  "building"
                ]
              }
            ],
            "service": "Drone_1",
            "slots": []
          }
        ],
        "speaker": "SYSTEM",
        "utterance": "Risk of physical damage! The drone's battery is empty, and its frame is damaged. It's flying at an altitude of 3m.     Risk of physical damage! The drone is flying 1m from a building. "
      }
    ]
  },
  {
    "dialogue_id": "001_00008",
    "services": [
      "Drone_1"
    ],
    "turns": [
      {
        "frames": [
          {
            "actions": [
              {
                "act": "INFORM",
                "canonical_values": [
                  "warning"
                ],
                "slot": "risk_of_physical_damage",
                "values": [
                  "warning"
                ]
              },
              {
                "act": "INFORM",
                "canonical_values": [
                  "0.5"
                ],
                "slot": "object_distance",
                "values": [
                  "0.5"
                ]
              },
              {
                "act": "INFORM",
                "canonical_values": [
                  "0.5"
                ],
                "slot": "object_distance",
                "values": [
                  "0.5"
                ]
              },
              {
                "act": "INFORM",
                "canonical_values": [
                  "1.0"
                ],
                "slot": "low_visibility",
                "values": [
                  "1.0"
                ]
              },
              {
                "act": "INFORM",
                "canonical_values": [
                  "true"
                ],
                "slot": "object_inpath",
                "values": [
                  "true"
                ]
              },
              {
                "act": "INFORM",
                "canonical_values": [
                  "0.5"
                ],
                "slot": "object_distance",
                "values": [
                  "0.5"
                ]
              },
              {
                "act": "INFORM",
                "canonical_values": [
                  "1.0"
                ],
                "slot": "indoor",
                "values": [
                  "1.0"
                ]
              },
              {
                "act": "INFORM",
                "canonical_values": [
                  "0.0"
                ],
                "slot": "normal_frame",
                "values": [
                  "0.0"
                ]
              },
              {
                "act": "INFORM",
                "canonical_values": [
                  "open window"
                ],
                "slot": "object_name",
                "values": [
                  "open window"
                ]
              }
            ],
            "service": "Drone_1",
            "slots": []
          }
        ],
        "speaker": "SYSTEM",
        "utterance": "Risk of physical damage! The drone's frame is in need of repair. It's also flying indoors and the setting is low visibility     Risk of physical damage! There's and open window in 0.5m in the drone's path. "
      }
    ]
  },
  {
    "dialogue_id": "001_00009",
    "services": [
      "Drone_1"
    ],
    "turns": [
      {
        "frames": [
          {
            "actions": [
              {
                "act": "INFORM",
                "canonical_values": [
                  "warning"
                ],
                "slot": "risk_of_physical_damage",
                "values": [
                  "warning"
                ]
              },
              {
                "act": "INFORM",
                "canonical_values": [
                  "true"
                ],
                "slot": "object_inpath",
                "values": [
                  "true"
                ]
              },
              {
                "act": "INFORM",
                "canonical_values": [
                  "8"
                ],
                "slot": "object_distance",
                "values": [
                  "8"
                ]
              },
              {
                "act": "INFORM",
                "canonical_values": [
                  "1.0"
                ],
                "slot": "indoor",
                "values": [
                  "1.0"
                ]
              },
              {
                "act": "INFORM",
                "canonical_values": [
                  "0.0"
                ],
                "slot": "normal_frame",
                "values": [
                  "0.0"
                ]
              },
              {
                "act": "INFORM",
                "canonical_values": [
                  "hause"
                ],
                "slot": "object_name",
                "values": [
                  "hause"
                ]
              }
            ],
            "service": "Drone_1",
            "slots": []
          }
        ],
        "speaker": "SYSTEM",
        "utterance": "Risk of physical damage! The drone's flying in a dark, indoor setting with a damaged frame.     Risk of physical damage! There's a building in the flight path in 8m. "
      }
    ]
  }
]